[
   {
      "arm" : "wide",
      "skcol" : "#ff6a360f",
      "skin" : false
   },
   {
      "id" : "1042557f-d1f9-44e3-ba78-f404e8fb7363/d"
   },
   {
      "id" : "8f96d1f8-e9bb-40d2-acc8-eb79746c5d7c/d"
   },
   {
      "id" : "831ef4ea-943c-4084-8a63-e9a0a615c766"
   },
   {
      "id" : "1e32496a-80e6-4632-87fd-1eaad2fcd024"
   },
   {
      "col" : [ "#ff35399d", "#0", "#0", "#0" ],
      "id" : "3babf7db-e52a-472b-843d-6150998bb94a"
   },
   {
      "col" : [ "#ff1b2e3f", "#0", "#0", "#0" ],
      "id" : "2f38749c-be37-4480-9574-397607a0591b"
   },
   {
      "col" : [ "#0", "#0", "#ffa12722", "#0" ],
      "id" : "d77b8561-ee41-4c0b-a6c9-8605d9d74077"
   },
   {
      "col" : [ "#ff35399d", "#0", "#0", "#0" ],
      "id" : "db5c59cf-db04-4e32-93d1-15749e8cc8f5"
   },
   {
      "id" : "1762466d-5083-4985-8a5a-df98e1dd2893"
   },
   {
      "id" : "cdd51ccc-a7dd-4a3c-bddb-b75081dd91f7"
   }
]
