{
    "content": [
        {
            "path": "manifest.json"
        },
        {
            "path": "pack_icon.png"
        },
        {
            "path": "alex_hair/alex_hair.meta.json"
        },
        {
            "path": "alex_hair/alex_hair.png"
        },
        {
            "path": "alex_hair/alex_hair.store_info.json"
        },
        {
            "path": "alex_hair/alex_hair_head.png"
        },
        {
            "path": "alex_hair/alex_hair_head_tintmap.tga"
        },
        {
            "path": "alex_hair/alex_hair_tintmap.tga"
        },
        {
            "path": "alex_pants/alex_pants.meta.json"
        },
        {
            "path": "alex_pants/alex_pants.png"
        },
        {
            "path": "alex_pants/alex_pants.store_info.json"
        },
        {
            "path": "alex_pants/alex_pants_tintmap.tga"
        },
        {
            "path": "alex_shirt/alex_shirt.meta.json"
        },
        {
            "path": "alex_shirt/alex_shirt.png"
        },
        {
            "path": "alex_shirt/alex_shirt.store_info.json"
        },
        {
            "path": "alex_shirt/alex_shirt_tintmap.tga"
        },
        {
            "path": "alex_shoes/alex_shoes.meta.json"
        },
        {
            "path": "alex_shoes/alex_shoes.png"
        },
        {
            "path": "alex_shoes/alex_shoes.store_info.json"
        },
        {
            "path": "alex_shoes/alex_shoes_tintmap.tga"
        },
        {
            "path": "alex_skin/alex_skin.store_info.json"
        },
        {
            "path": "alex_skin/skin_alex.meta.json"
        },
        {
            "path": "alex_skin/skin_alex.png"
        },
        {
            "path": "alex_skin/skin_alex_head.png"
        },
        {
            "path": "alex_skin/skin_alex_head_tintmap.tga"
        },
        {
            "path": "alex_skin/skin_alex_tintmap.tga"
        },
        {
            "path": "animations/dressing_room/dressing_room_idle_arm_1.anim.json"
        },
        {
            "path": "animations/dressing_room/dressing_room_idle_back_1.anim.json"
        },
        {
            "path": "animations/dressing_room/dressing_room_idle_bottom_1.anim.json"
        },
        {
            "path": "animations/dressing_room/dressing_room_idle_torso_1.anim.json"
        },
        {
            "path": "animations/dressing_room/dressing_room_react_arm_1.anim.json"
        },
        {
            "path": "animations/dressing_room/dressing_room_react_arm_2.anim.json"
        },
        {
            "path": "animations/dressing_room/dressing_room_react_back_1.anim.json"
        },
        {
            "path": "animations/dressing_room/dressing_room_react_back_2.anim.json"
        },
        {
            "path": "animations/dressing_room/dressing_room_react_bored_1.anim.json"
        },
        {
            "path": "animations/dressing_room/dressing_room_react_bottom_1.anim.json"
        },
        {
            "path": "animations/dressing_room/dressing_room_react_bottom_2.anim.json"
        },
        {
            "path": "animations/dressing_room/dressing_room_react_bottom_3.anim.json"
        },
        {
            "path": "animations/dressing_room/dressing_room_react_confirm_1.anim.json"
        },
        {
            "path": "animations/dressing_room/dressing_room_react_confirm_2.anim.json"
        },
        {
            "path": "animations/dressing_room/dressing_room_react_head_1.anim.json"
        },
        {
            "path": "animations/dressing_room/dressing_room_react_head_2.anim.json"
        },
        {
            "path": "animations/dressing_room/dressing_room_react_idle.anim.json"
        },
        {
            "path": "animations/dressing_room/dressing_room_react_torso_1.anim.json"
        },
        {
            "path": "animations/dressing_room/dressing_room_react_torso_2.anim.json"
        },
        {
            "path": "animation_controllers/persona.acon.json"
        },
        {
            "path": "animation_controllers/persona_dressing_room_react.acon.json"
        },
        {
            "path": "animation_controllers/persona_player.acon.json"
        },
        {
            "path": "body/medium/clothing_map.tga"
        },
        {
            "path": "body/medium/face_clothing_map.tga"
        },
        {
            "path": "body/medium/medium.geometry.json"
        },
        {
            "path": "body/medium/medium.meta.json"
        },
        {
            "path": "body/medium_skeleton/medium_skeleton.geometry.json"
        },
        {
            "path": "body/medium_skeleton/medium_skeleton.meta.json"
        },
        {
            "path": "body/small/clothing_map.tga"
        },
        {
            "path": "body/small/face_clothing_map.tga"
        },
        {
            "path": "body/small/small.geometry.json"
        },
        {
            "path": "body/small/small.meta.json"
        },
        {
            "path": "body/smaller/clothing_map.tga"
        },
        {
            "path": "body/smaller/face_clothing_map.tga"
        },
        {
            "path": "body/smaller/smaller.geometry.json"
        },
        {
            "path": "body/smaller/smaller.meta.json"
        },
        {
            "path": "body/smaller_skeleton/smaller_skeleton.geometry.json"
        },
        {
            "path": "body/smaller_skeleton/smaller_skeleton.meta.json"
        },
        {
            "path": "body/small_skeleton/small_skeleton.geometry.json"
        },
        {
            "path": "body/small_skeleton/small_skeleton.meta.json"
        },
        {
            "path": "body/tall/clothing_map.tga"
        },
        {
            "path": "body/tall/face_clothing_map.tga"
        },
        {
            "path": "body/tall/tall.geometry.json"
        },
        {
            "path": "body/tall/tall.meta.json"
        },
        {
            "path": "body/tall_skeleton/tall_skeleton.geometry.json"
        },
        {
            "path": "body/tall_skeleton/tall_skeleton.meta.json"
        },
        {
            "path": "plain_eyes/plain.meta.json"
        },
        {
            "path": "plain_eyes/plain_blink_head.png"
        },
        {
            "path": "plain_eyes/plain_blink_head_tintmap.tga"
        },
        {
            "path": "plain_eyes/plain_eyes.store_info.json"
        },
        {
            "path": "plain_mouth/plain_head.png"
        },
        {
            "path": "plain_mouth/plain_head_tintmap.tga"
        },
        {
            "path": "plain_mouth/plain_mouth.meta.json"
        },
        {
            "path": "plain_mouth/plain_mouth.store_info.json"
        },
        {
            "path": "render_controllers/persona.rcon.json"
        },
        {
            "path": "steve_hair/steve_hair.meta.json"
        },
        {
            "path": "steve_hair/steve_hair.store_info.json"
        },
        {
            "path": "steve_hair/steve_hair_head.png"
        },
        {
            "path": "steve_hair/steve_hair_head_tintmap.tga"
        },
        {
            "path": "steve_pants/steve_pants.meta.json"
        },
        {
            "path": "steve_pants/steve_pants.png"
        },
        {
            "path": "steve_pants/steve_pants.store_info.json"
        },
        {
            "path": "steve_pants/steve_pants_tintmap.tga"
        },
        {
            "path": "steve_shirt/steve_shirt.meta.json"
        },
        {
            "path": "steve_shirt/steve_shirt.png"
        },
        {
            "path": "steve_shirt/steve_shirt.store_info.json"
        },
        {
            "path": "steve_shirt/steve_shirt_tintmap.tga"
        },
        {
            "path": "steve_shoes/steve_shoes.meta.json"
        },
        {
            "path": "steve_shoes/steve_shoes.png"
        },
        {
            "path": "steve_shoes/steve_shoes.store_info.json"
        },
        {
            "path": "steve_shoes/steve_shoes_tintmap.tga"
        },
        {
            "path": "steve_skin/skin_steve.meta.json"
        },
        {
            "path": "steve_skin/steve_skin.png"
        },
        {
            "path": "steve_skin/steve_skin.store_info.json"
        },
        {
            "path": "steve_skin/steve_skin_head.png"
        },
        {
            "path": "steve_skin/steve_skin_head_tintmap.tga"
        },
        {
            "path": "steve_skin/steve_skin_tintmap.tga"
        },
        {
            "path": "straight/straight.meta.json"
        },
        {
            "path": "straight/straight.store_info.json"
        },
        {
            "path": "straight/straight_head.png"
        },
        {
            "path": "straight/straight_head_tintmap.tga"
        },
        {
            "path": "textures/ui/color_picker.png"
        },
        {
            "path": "textures/ui/color_picker_selected.png"
        },
        {
            "path": "textures/ui/dark.png"
        },
        {
            "path": "textures/ui/dressing_room_animation.png"
        },
        {
            "path": "textures/ui/dressing_room_banner.json"
        },
        {
            "path": "textures/ui/dressing_room_banner.png"
        },
        {
            "path": "textures/ui/dressing_room_customization.png"
        },
        {
            "path": "textures/ui/green.png"
        },
        {
            "path": "textures/ui/icon_hanger_color.png"
        },
        {
            "path": "textures/ui/icon_lock.png"
        },
        {
            "path": "textures/ui/icon_minecoin.png"
        },
        {
            "path": "textures/ui/icon_preview.png"
        },
        {
            "path": "textures/ui/icon_reset.png"
        },
        {
            "path": "textures/ui/info_bulb.png"
        },
        {
            "path": "textures/ui/info_bulb_color.png"
        },
        {
            "path": "textures/ui/light.png"
        },
        {
            "path": "textures/ui/none.png"
        },
        {
            "path": "textures/ui/purchasable.png"
        },
        {
            "path": "textures/ui/purchasable_selected.png"
        },
        {
            "path": "textures/ui/purple.png"
        },
        {
            "path": "textures/ui/random_dice.png"
        },
        {
            "path": "textures/ui/remove.png"
        },
        {
            "path": "textures/ui/remove_dark.png"
        },
        {
            "path": "textures/ui/remove_white.png"
        },
        {
            "path": "textures/ui/set.png"
        },
        {
            "path": "textures/ui/sets.png"
        },
        {
            "path": "textures/ui/set_selected.png"
        },
        {
            "path": "textures/ui/skinpack3_Thumbnail_0.jpg"
        },
        {
            "path": "textures/ui/skins_library.png"
        },
        {
            "path": "textures/ui/skins_library_selected.png"
        },
        {
            "path": "textures/ui/slot_equipped.json"
        },
        {
            "path": "textures/ui/slot_equipped.png"
        },
        {
            "path": "textures/ui/white.png"
        },
        {
            "path": "textures/ui/navigation_icons/body.png"
        },
        {
            "path": "textures/ui/navigation_icons/capes.png"
        },
        {
            "path": "textures/ui/navigation_icons/customization.png"
        },
        {
            "path": "textures/ui/navigation_icons/emotes.png"
        },
        {
            "path": "textures/ui/navigation_icons/featured.png"
        },
        {
            "path": "textures/ui/navigation_icons/skins.png"
        },
        {
            "path": "textures/ui/navigation_icons/style.png"
        },
        {
            "path": "textures/ui/size_icons/arm_size_normal_selected.png"
        },
        {
            "path": "textures/ui/size_icons/arm_size_slim_selected.png"
        },
        {
            "path": "textures/ui/size_icons/height_normal_selected.png"
        },
        {
            "path": "textures/ui/size_icons/height_shortest_selected.png"
        },
        {
            "path": "textures/ui/size_icons/height_short_selected.png"
        },
        {
            "path": "textures/ui/size_icons/height_tall_selected.png"
        },
        {
            "path": "textures/ui/subcategory_icons/arms.png"
        },
        {
            "path": "textures/ui/subcategory_icons/arms_selected.png"
        },
        {
            "path": "textures/ui/subcategory_icons/back_accessory.png"
        },
        {
            "path": "textures/ui/subcategory_icons/back_accessory_selected.png"
        },
        {
            "path": "textures/ui/subcategory_icons/body_size.png"
        },
        {
            "path": "textures/ui/subcategory_icons/body_size_selected.png"
        },
        {
            "path": "textures/ui/subcategory_icons/bottoms.png"
        },
        {
            "path": "textures/ui/subcategory_icons/bottoms_selected.png"
        },
        {
            "path": "textures/ui/subcategory_icons/distress.png"
        },
        {
            "path": "textures/ui/subcategory_icons/distress_selected.png"
        },
        {
            "path": "textures/ui/subcategory_icons/eyes.png"
        },
        {
            "path": "textures/ui/subcategory_icons/eyes_selected.png"
        },
        {
            "path": "textures/ui/subcategory_icons/face_accessory.png"
        },
        {
            "path": "textures/ui/subcategory_icons/face_accessory_selected.png"
        },
        {
            "path": "textures/ui/subcategory_icons/facial_hair.png"
        },
        {
            "path": "textures/ui/subcategory_icons/facial_hair_selected.png"
        },
        {
            "path": "textures/ui/subcategory_icons/feet.png"
        },
        {
            "path": "textures/ui/subcategory_icons/feet_selected.png"
        },
        {
            "path": "textures/ui/subcategory_icons/greeting.png"
        },
        {
            "path": "textures/ui/subcategory_icons/greeting_selected.png"
        },
        {
            "path": "textures/ui/subcategory_icons/hair.png"
        },
        {
            "path": "textures/ui/subcategory_icons/hair_selected.png"
        },
        {
            "path": "textures/ui/subcategory_icons/hands.png"
        },
        {
            "path": "textures/ui/subcategory_icons/hands_selected.png"
        },
        {
            "path": "textures/ui/subcategory_icons/head.png"
        },
        {
            "path": "textures/ui/subcategory_icons/head_selected.png"
        },
        {
            "path": "textures/ui/subcategory_icons/idle.png"
        },
        {
            "path": "textures/ui/subcategory_icons/idle_selected.png"
        },
        {
            "path": "textures/ui/subcategory_icons/legs.png"
        },
        {
            "path": "textures/ui/subcategory_icons/legs_selected.png"
        },
        {
            "path": "textures/ui/subcategory_icons/mouth.png"
        },
        {
            "path": "textures/ui/subcategory_icons/mouth_selected.png"
        },
        {
            "path": "textures/ui/subcategory_icons/outerwear.png"
        },
        {
            "path": "textures/ui/subcategory_icons/outerwear_selected.png"
        },
        {
            "path": "textures/ui/subcategory_icons/skin_texture.png"
        },
        {
            "path": "textures/ui/subcategory_icons/skin_texture_selected.png"
        },
        {
            "path": "textures/ui/subcategory_icons/socialize.png"
        },
        {
            "path": "textures/ui/subcategory_icons/socialize_selected.png"
        },
        {
            "path": "textures/ui/subcategory_icons/tops.png"
        },
        {
            "path": "textures/ui/subcategory_icons/tops_selected.png"
        },
        {
            "path": "ui/genoa_persona_screen.json"
        },
        {
            "path": "ui/genoa_persona_skin_pack_picker_screen.json"
        },
        {
            "path": "ui/genoa_persona_skin_picker_screen.json"
        },
        {
            "path": "ui/persona_screen.json"
        },
        {
            "path": "ui/_global_variables.json"
        },
        {
            "path": "ui/_ui_defs.json"
        }
    ]
}
